[
    {
        "id": 0,
        "text": "further",
        "translate": "verder"
    },
    {
        "id": 1,
        "text": "to go",
        "translate": "gaan"
    },
    {
        "id": 2,
        "text": "the fork",
        "translate": "de vork"
    }
]