[
    {
        "id": 0,
        "name": "Automatic Question Generation from Sentences",
        "description": "I&apos; ll be in your neighborhood doing errands this weekend.Do you want to grab brunch?",
        "author": "Brendan Lim",
        "img": "http://www.material-ui.com/images/grid-list/hats-829509_640.jpg",
        "url": "http://www.iro.umontreal.ca/~felipe/TALN2010/Xml/Papers/all/taln2010_submission_172.pdf"
    },
    {
        "id": 1,
        "name": "How data is structured: it's a JSON tree",
        "description": "All Firebase Realtime Database data is stored as JSON objects. You can think of the database as a cloud-hosted JSON tree. Unlike a SQL database, there are no tables or records. When you add data to the JSON tree, it becomes a node in the existing JSON structure.",
        "author": "Google",
        "img": "http://www.material-ui.com/images/grid-list/hats-829509_640.jpg",
        "url": "https://firebase.google.com/docs/database/server/structure-data#how_data_is_structured_its_a_json_tree"
    },
    {
        "id": 2,
        "name": "Automatic Question Generation from Sentences",
        "description": "I&apos; ll be in your neighborhood doing errands this weekend.Do you want to grab brunch?",
        "author": "Brendan Lim",
        "img": "http://www.material-ui.com/images/grid-list/hats-829509_640.jpg",
        "url": "http://www.iro.umontreal.ca/~felipe/TALN2010/Xml/Papers/all/taln2010_submission_172.pdf"
    }
]