[
    {
        "id": 0,
        "text": "I",
        "translate": "Ik"
    },
    {
        "id": 1,
        "text": "You",
        "translate": "Jullie"
    },
    {
        "id": 2,
        "text": "They",
        "translate": "Ze"
    }
]